5 Portfolio assignment 7 | Portfolio of DSFB
…
flu <- flu %>% separate("Date", into = c("year", "month", "day"), sep = "-") 

flu <- flu[-c(2,3)] 
flu$year <- as.integer(flu$year)
flu$country <- as.factor(flu$country)

flu <- flu %>% 
        group_by(year) %>% 
        summarise("country" = country, "influenza activity" = sum(value, na.rm = T))

## `summarise()` has grouped output by 'year'. You can override using the `.groups` argument.

flu

## # A tibble: 19,111 x 3
## # Groups:   year [14]
##     year country   `influenza activity`
##    <int> <fct>                    <int>
##  1  2002 Argentina                  503
##  2  2002 Australia                  503
##  3  2002 Austria                    503
##  4  2002 Belgium                    503
##  5  2002 Bolivia                    503
##  6  2002 Brazil                     503
##  7  2002 Bulgaria                   503
##  8  2002 Canada                     503
##  9  2002 Chile                      503
## 10  2002 France                     503
## # ... with 19,101 more rows
…
